{
  "posts": [
    {
      "full_name": "Anatolii Andrusenko",
      "b_day": "2004-04-25",
      "age": 18,
      "course": "Chess",
      "country": "Canada",
      "city": "Kyiv",
      "email": "anatolii.andrusenko@ukma.edu.ua",
      "phone": "+380992008322",
      "gender": "Male",
      "bg_color": "#fff0f0",
      "note": "Here I am",
      "id": 1
    }
  ],
  "comments": [
    {
      "id": 1,
      "body": "some comment",
      "postId": 1
    }
  ],
  "profile": {
    "name": "typicode"
  }
}